Homework6
…
  return(return_tibble)
}

Get tibbles for election and hurricane data:

election_tibble <- create_tibble(election_data)
election_tibble

# A tibble: 100 × 9
   sourceName     sourceId author title description url   urlToImage publishedAt
   <chr>          <chr>    <chr>  <chr> <chr>       <chr> <chr>      <chr>      
 1 [Removed]      <NA>     <NA>   [Rem… "[Removed]" http… <NA>       2024-10-27…
 2 HuffPost       <NA>     Igor … JD V… "The Repub… http… https://i… 2024-10-27…
 3 [Removed]      <NA>     <NA>   [Rem… "[Removed]" http… <NA>       2024-10-27…
 4 Digital Journ… <NA>     AFP    Ex-p… "Former Bo… http… https://w… 2024-10-27…
 5 International… <NA>     AFP N… Ex-p… "Former Bo… http… https://d… 2024-10-27…
 6 ABC News       abc-news KATE … Geor… "The Democ… http… https://i… 2024-10-27…
 7 Wonkette.com   <NA>     Andre… Brit… "When the … http… https://s… 2024-10-27…
 8 Yahoo Enterta… <NA>     Daria… Trum… "Retirees … http… https://s… 2024-10-27…
 9 Biztoc.com     <NA>     newsw… How … "As Electi… http… https://b… 2024-10-27…
10 Newser         <NA>     Bob C… Elec… "Georgia's… http… https://i… 2024-10-27…
# ℹ 90 more rows
# ℹ 1 more variable: content <chr>

hurricane_tibble <- create_tibble(hurricane_data)
hurricane_tibble

# A tibble: 100 × 9
   sourceName     sourceId author title description url   urlToImage publishedAt
   <chr>          <chr>    <chr>  <chr> <chr>       <chr> <chr>      <chr>      
 1 The Portland … <NA>     Wm. S… "YOU… "by Wm. St… http… https://m… 2024-10-27…
 2 Slashdot.org   <NA>     feedf… "Tro… "Tropical … http… <NA>       2024-10-27…
 3 Noaa.gov       <NA>     nhcwe… "Pos… "5-Day Unc… http… <NA>       2024-10-27…
 4 BroBible       <NA>     Grays… "Col… "UTSA comp… http… https://b… 2024-10-27…
 5 gcaptain.com   <NA>     John … "Ame… "by John K… http… https://g… 2024-10-27…
 6 Billboard      <NA>     Melin… "Luk… "Here are … http… https://w… 2024-10-27…
 7 Econlib.org    <NA>     David… "My … "With SCOT… http… https://w… 2024-10-27…
 8 Bleacher Repo… bleache… Scott… "Car… "Carolina … http… https://m… 2024-10-27…
 9 Common Dreams  <NA>     Ben G… "Hur… "It’s 2029… http… https://w… 2024-10-27…
10 Blogger.com    <NA>     Calcu… "CES…  <NA>       http… <NA>       2024-10-27…
# ℹ 90 more rows
# ℹ 1 more variable: content <chr>
…
  return(tb)
}

Use function on both tibbles:

election_tibble <- handle_publishedAt(election_tibble)
hurricane_tibble <- handle_publishedAt(hurricane_tibble)

election_tibble

# A tibble: 100 × 10
   sourceName               sourceId author   title description url   urlToImage
   <chr>                    <chr>    <chr>    <chr> <chr>       <chr> <chr>     
 1 Biztoc.com               <NA>     news.go… Tesl… "Tesla Bil… http… https://b…
 2 Biztoc.com               <NA>     nbcnews… Stev… "With less… http… https://b…
 3 Freerepublic.com         <NA>     Washing… Whit… "This week… http… <NA>      
 4 Lawyersgunsmoneyblog.com <NA>     Paul Ca… Trum… "Here’s a … http… https://m…
 5 [Removed]                <NA>     <NA>     [Rem… "[Removed]" http… <NA>      
 6 New York Post            <NA>     Charles… Jaso… "Jason Tre… http… https://n…
 7 Liveandletsfly.com       <NA>     Live an… Opin… "Boeing la… http… https://l…
 8 Freerepublic.com         <NA>     Powerli… WORL… "Many of t… http… <NA>      
 9 Freerepublic.com         <NA>     Fox 29(… Bomb… "Pennsylva… http… <NA>      
10 Raw Story                <NA>     Ariana … Anxi… "WASHINGTO… http… https://w…
# ℹ 90 more rows
# ℹ 3 more variables: publishedAt <dttm>, content <chr>, pub_diff <drtn>

hurricane_tibble

# A tibble: 100 × 10
   sourceName       sourceId author           title description url   urlToImage
   <chr>            <chr>    <chr>            <chr> <chr>       <chr> <chr>     
 1 Inside the Magic <NA>     "Chloe James"    Yet … "Another t… http… https://i…
 2 Touringplans.com <NA>     "Derek Burgan"   Them… "The Theme… http… https://b…
 3 Newsweek         newsweek "Jack Beresford" Fami… "Nancy Col… http… https://d…
 4 Daily Signal     <NA>     "Brandy Perez"   Desp… "At every … http… https://w…
 5 Biztoc.com       <NA>     "newsweek.com"   Fami… "A cat who… http… https://b…
 6 Biztoc.com       <NA>     "aol.com"        This… "James Gre… http… https://b…
 7 NDTV News        <NA>      <NA>            NASA… "Three cre… http… https://c…
 8 Freerepublic.com <NA>     "The Warhorse"   Far-… "Just as f… http… <NA>      
 9 Forbes           <NA>     "Kelly Phillips… Tax … "Our lates… http… https://i…
10 [Removed]        <NA>      <NA>            [Rem… "[Removed]" http… <NA>      
# ℹ 90 more rows
# ℹ 3 more variables: publishedAt <dttm>, content <chr>, pub_diff <drtn>
…
